#include<stdio.h>
int main()
{
	int num,sum=0;
	printf("Enter positive integers:");
	while(1)
	{
		scanf("%d",&num);
		if(num<=0)
		{
			break;
		}
		sum=sum+num;
	}
	printf("Sum of positive integers = %d",sum);
	return 0;
}
